Insurance,What are your insurance options,0.95
Insurance,Tell me about your insurance,0.9
First_Class_Protection,Can I have protection?,0.92
First_Class_Protection,What does your protection include?,0.93
First_Class_Protection,Blah blah blah,0.45