{
    "name": "kfold_1",
    "language": "en",
    "metadata": {
        "api_version": {
            "major_version": "v1",
            "minor_version": "2018-02-16"
        }
    },
    "description": "",
    "workspace_id": "a9c3b0de-2093-4f8f-9578-261c054fc8bb",
    "learning_opt_out": true,
    "status": "Available"
}
